<?xml version="1.0" encoding="UTF-8"?>
<svg xmlns="http://www.w3.org/2000/svg" xmlns:xlink="http://www.w3.org/1999/xlink" width="166.31pt" height="23.06pt" viewBox="0 0 166.31 23.06" version="1.1">
<defs>
<g>
<symbol overflow="visible" id="glyph0-0">
<path style="stroke:none;" d="M 1.234375 -14.9375 L 1.234375 -2.359375 L 5.453125 -8.65625 Z M 1.984375 -1.234375 L 10.40625 -1.234375 L 6.203125 -7.53125 Z M 6.9375 -8.65625 L 11.15625 -2.359375 L 11.15625 -14.9375 Z M 6.203125 -9.765625 L 10.40625 -16.03125 L 1.984375 -16.03125 Z M 0 0 L 0 -17.296875 L 12.390625 -17.296875 L 12.390625 0 Z M 0 0 "/>
</symbol>
<symbol overflow="visible" id="glyph0-1">
<path style="stroke:none;" d="M 9.78125 -15.640625 C 10 -14.492188 10.144531 -13.425781 10.21875 -12.4375 C 10.019531 -12.28125 9.75 -12.234375 9.40625 -12.296875 C 9.269531 -12.765625 9.117188 -13.160156 8.953125 -13.484375 C 8.796875 -13.816406 8.582031 -14.144531 8.3125 -14.46875 C 8.039062 -14.800781 7.6875 -15.050781 7.25 -15.21875 C 6.820312 -15.382812 6.320312 -15.46875 5.75 -15.46875 C 5.03125 -15.46875 4.394531 -15.179688 3.84375 -14.609375 C 3.300781 -14.035156 3.03125 -13.394531 3.03125 -12.6875 C 3.03125 -12.289062 3.128906 -11.914062 3.328125 -11.5625 C 3.523438 -11.207031 3.742188 -10.914062 3.984375 -10.6875 C 4.222656 -10.46875 4.550781 -10.238281 4.96875 -10 C 5.394531 -9.769531 5.734375 -9.601562 5.984375 -9.5 C 6.234375 -9.40625 6.566406 -9.273438 6.984375 -9.109375 C 7.554688 -8.890625 8.054688 -8.660156 8.484375 -8.421875 C 8.910156 -8.191406 9.328125 -7.898438 9.734375 -7.546875 C 10.148438 -7.191406 10.460938 -6.757812 10.671875 -6.25 C 10.890625 -5.75 11 -5.1875 11 -4.5625 C 11 -3.78125 10.785156 -3.03125 10.359375 -2.3125 C 9.941406 -1.59375 9.378906 -1.007812 8.671875 -0.5625 C 7.804688 -0.03125 6.785156 0.234375 5.609375 0.234375 C 4.828125 0.234375 4.003906 0.140625 3.140625 -0.046875 C 2.285156 -0.234375 1.625 -0.328125 1.15625 -0.328125 C 0.90625 -1.367188 0.742188 -2.625 0.671875 -4.09375 C 0.921875 -4.226562 1.1875 -4.25 1.46875 -4.15625 C 1.988281 -1.8125 3.4375 -0.640625 5.8125 -0.640625 C 6.8125 -0.640625 7.578125 -0.898438 8.109375 -1.421875 C 8.648438 -1.941406 8.921875 -2.695312 8.921875 -3.6875 C 8.921875 -4.15625 8.847656 -4.578125 8.703125 -4.953125 C 8.554688 -5.335938 8.390625 -5.644531 8.203125 -5.875 C 8.015625 -6.101562 7.742188 -6.320312 7.390625 -6.53125 C 7.035156 -6.75 6.75 -6.90625 6.53125 -7 C 6.3125 -7.101562 6 -7.226562 5.59375 -7.375 C 4.96875 -7.613281 4.425781 -7.851562 3.96875 -8.09375 C 3.519531 -8.34375 3.070312 -8.648438 2.625 -9.015625 C 2.175781 -9.390625 1.835938 -9.828125 1.609375 -10.328125 C 1.378906 -10.828125 1.265625 -11.390625 1.265625 -12.015625 C 1.265625 -13.285156 1.722656 -14.316406 2.640625 -15.109375 C 3.566406 -15.910156 4.679688 -16.3125 5.984375 -16.3125 C 6.921875 -16.3125 7.726562 -16.207031 8.40625 -16 C 9.09375 -15.789062 9.550781 -15.671875 9.78125 -15.640625 Z M 9.78125 -15.640625 "/>
</symbol>
<symbol overflow="visible" id="glyph0-2">
<path style="stroke:none;" d="M 6.78125 -10.828125 C 5.78125 -10.828125 4.910156 -10.382812 4.171875 -9.5 C 3.441406 -8.625 3.078125 -7.390625 3.078125 -5.796875 C 3.078125 -4.273438 3.457031 -3.019531 4.21875 -2.03125 C 4.988281 -1.050781 5.976562 -0.5625 7.1875 -0.5625 C 8.3125 -0.5625 9.210938 -1.003906 9.890625 -1.890625 C 10.566406 -2.773438 10.90625 -3.972656 10.90625 -5.484375 C 10.90625 -7.085938 10.503906 -8.378906 9.703125 -9.359375 C 8.898438 -10.335938 7.925781 -10.828125 6.78125 -10.828125 Z M 13.0625 -5.8125 C 13.0625 -4.113281 12.503906 -2.679688 11.390625 -1.515625 C 10.285156 -0.347656 8.757812 0.234375 6.8125 0.234375 C 5.125 0.234375 3.71875 -0.300781 2.59375 -1.375 C 1.476562 -2.457031 0.921875 -3.832031 0.921875 -5.5 C 0.921875 -7.300781 1.503906 -8.773438 2.671875 -9.921875 C 3.835938 -11.078125 5.285156 -11.65625 7.015625 -11.65625 C 8.679688 -11.65625 10.101562 -11.109375 11.28125 -10.015625 C 12.46875 -8.929688 13.0625 -7.53125 13.0625 -5.8125 Z M 13.0625 -5.8125 "/>
</symbol>
<symbol overflow="visible" id="glyph0-3">
<path style="stroke:none;" d="M 23.6875 -8.375 C 23.6875 -9.363281 23.585938 -9.972656 23.390625 -10.203125 C 23.191406 -10.429688 22.695312 -10.578125 21.90625 -10.640625 C 21.832031 -10.710938 21.796875 -10.847656 21.796875 -11.046875 C 21.796875 -11.242188 21.832031 -11.378906 21.90625 -11.453125 C 22.894531 -11.410156 23.679688 -11.390625 24.265625 -11.390625 C 24.859375 -11.390625 25.648438 -11.410156 26.640625 -11.453125 C 26.710938 -11.378906 26.75 -11.242188 26.75 -11.046875 C 26.75 -10.847656 26.710938 -10.710938 26.640625 -10.640625 C 25.847656 -10.578125 25.351562 -10.429688 25.15625 -10.203125 C 24.957031 -9.972656 24.859375 -9.363281 24.859375 -8.375 L 24.859375 -5.546875 C 24.859375 -1.691406 23.015625 0.234375 19.328125 0.234375 C 16.765625 0.234375 15.484375 -1.335938 15.484375 -4.484375 L 15.484375 -8.375 C 15.484375 -9.363281 15.382812 -9.972656 15.1875 -10.203125 C 14.988281 -10.429688 14.492188 -10.578125 13.703125 -10.640625 C 13.628906 -10.710938 13.59375 -10.847656 13.59375 -11.046875 C 13.59375 -11.242188 13.628906 -11.378906 13.703125 -11.453125 C 15.128906 -11.410156 16.046875 -11.390625 16.453125 -11.390625 C 16.910156 -11.390625 17.835938 -11.410156 19.234375 -11.453125 C 19.304688 -11.378906 19.34375 -11.242188 19.34375 -11.046875 C 19.34375 -10.847656 19.304688 -10.710938 19.234375 -10.640625 C 18.441406 -10.578125 17.945312 -10.429688 17.75 -10.203125 C 17.550781 -9.972656 17.453125 -9.363281 17.453125 -8.375 L 17.453125 -5.015625 C 17.453125 -4.347656 17.484375 -3.78125 17.546875 -3.3125 C 17.609375 -2.851562 17.734375 -2.394531 17.921875 -1.9375 C 18.109375 -1.488281 18.414062 -1.144531 18.84375 -0.90625 C 19.269531 -0.675781 19.796875 -0.5625 20.421875 -0.5625 C 20.953125 -0.5625 21.410156 -0.617188 21.796875 -0.734375 C 22.179688 -0.859375 22.488281 -1.050781 22.71875 -1.3125 C 22.957031 -1.570312 23.144531 -1.828125 23.28125 -2.078125 C 23.425781 -2.328125 23.523438 -2.664062 23.578125 -3.09375 C 23.640625 -3.519531 23.671875 -3.863281 23.671875 -4.125 C 23.679688 -4.382812 23.6875 -4.753906 23.6875 -5.234375 Z M 5.25 2.125 C 5.03125 2.125 4.773438 2.21875 4.484375 2.40625 C 4.203125 2.601562 3.96875 2.898438 3.78125 3.296875 L 3.03125 2.921875 C 3.34375 2.472656 3.789062 2.003906 4.375 1.515625 C 4.957031 1.023438 5.582031 0.597656 6.25 0.234375 C 4.695312 0.109375 3.414062 -0.484375 2.40625 -1.546875 C 1.394531 -2.609375 0.890625 -3.925781 0.890625 -5.5 C 0.890625 -7.300781 1.46875 -8.773438 2.625 -9.921875 C 3.789062 -11.078125 5.25 -11.65625 7 -11.65625 C 8.664062 -11.65625 10.085938 -11.109375 11.265625 -10.015625 C 12.441406 -8.929688 13.03125 -7.53125 13.03125 -5.8125 C 13.03125 -4.375 12.625 -3.109375 11.8125 -2.015625 C 11 -0.921875 9.859375 -0.222656 8.390625 0.078125 C 7.285156 0.421875 6.394531 0.820312 5.71875 1.28125 C 5.75 1.269531 5.816406 1.265625 5.921875 1.265625 C 6.546875 1.265625 7.039062 1.316406 7.40625 1.421875 C 8.382812 1.671875 9.242188 1.953125 9.984375 2.265625 C 10.734375 2.578125 11.320312 2.796875 11.75 2.921875 C 12.1875 3.046875 12.785156 3.109375 13.546875 3.109375 C 14.578125 3.109375 15.726562 2.898438 17 2.484375 C 18.269531 2.066406 19.1875 1.664062 19.75 1.28125 L 20.0625 1.53125 C 19.539062 2.070312 18.523438 2.609375 17.015625 3.140625 C 15.503906 3.671875 14.023438 3.9375 12.578125 3.9375 C 11.816406 3.9375 11.050781 3.84375 10.28125 3.65625 C 9.519531 3.46875 8.890625 3.257812 8.390625 3.03125 C 7.890625 2.8125 7.347656 2.601562 6.765625 2.40625 C 6.191406 2.21875 5.6875 2.125 5.25 2.125 Z M 6.765625 -10.828125 C 5.753906 -10.828125 4.878906 -10.382812 4.140625 -9.5 C 3.410156 -8.625 3.046875 -7.390625 3.046875 -5.796875 C 3.046875 -4.273438 3.425781 -3.019531 4.1875 -2.03125 C 4.957031 -1.050781 5.945312 -0.5625 7.15625 -0.5625 C 8.28125 -0.5625 9.179688 -1.003906 9.859375 -1.890625 C 10.535156 -2.773438 10.875 -3.972656 10.875 -5.484375 C 10.875 -7.085938 10.472656 -8.378906 9.671875 -9.359375 C 8.867188 -10.335938 7.898438 -10.828125 6.765625 -10.828125 Z M 6.765625 -10.828125 "/>
</symbol>
<symbol overflow="visible" id="glyph0-4">
<path style="stroke:none;" d="M 6.140625 -5.578125 L 4.734375 -5.578125 L 4.734375 -1.859375 C 4.734375 -1.453125 4.816406 -1.164062 4.984375 -1 C 5.160156 -0.84375 5.507812 -0.765625 6.03125 -0.765625 L 7.09375 -0.765625 C 8.03125 -0.765625 8.734375 -1.003906 9.203125 -1.484375 C 9.671875 -1.960938 10.023438 -2.625 10.265625 -3.46875 C 10.492188 -3.53125 10.722656 -3.5 10.953125 -3.375 C 10.710938 -2.019531 10.46875 -0.878906 10.21875 0.046875 C 9.125 0.015625 8.25 0 7.59375 0 L 3.765625 0 C 3.097656 0 2.175781 0.015625 1 0.046875 C 0.925781 -0.015625 0.890625 -0.144531 0.890625 -0.34375 C 0.890625 -0.539062 0.925781 -0.679688 1 -0.765625 C 1.78125 -0.828125 2.269531 -0.96875 2.46875 -1.1875 C 2.664062 -1.414062 2.765625 -2.03125 2.765625 -3.03125 L 2.765625 -8.375 C 2.765625 -9.363281 2.664062 -9.972656 2.46875 -10.203125 C 2.269531 -10.429688 1.78125 -10.578125 1 -10.640625 C 0.925781 -10.710938 0.890625 -10.847656 0.890625 -11.046875 C 0.890625 -11.242188 0.925781 -11.378906 1 -11.453125 C 2.175781 -11.410156 3.085938 -11.390625 3.734375 -11.390625 L 8.875 -11.390625 C 9.25 -11.390625 9.585938 -11.425781 9.890625 -11.5 C 9.929688 -11.5 9.953125 -11.472656 9.953125 -11.421875 C 10.066406 -11.023438 10.21875 -10.039062 10.40625 -8.46875 C 10.1875 -8.375 9.960938 -8.332031 9.734375 -8.34375 C 9.554688 -8.914062 9.394531 -9.332031 9.25 -9.59375 C 9.113281 -9.851562 8.851562 -10.082031 8.46875 -10.28125 C 8.09375 -10.476562 7.582031 -10.578125 6.9375 -10.578125 L 5.53125 -10.578125 C 5.289062 -10.578125 5.097656 -10.515625 4.953125 -10.390625 C 4.804688 -10.273438 4.734375 -10.109375 4.734375 -9.890625 L 4.734375 -6.359375 L 6.140625 -6.359375 C 6.898438 -6.359375 7.363281 -6.441406 7.53125 -6.609375 C 7.707031 -6.773438 7.816406 -7.15625 7.859375 -7.75 C 7.921875 -7.820312 8.035156 -7.859375 8.203125 -7.859375 C 8.367188 -7.859375 8.488281 -7.820312 8.5625 -7.75 C 8.519531 -6.925781 8.5 -6.34375 8.5 -6 C 8.5 -5.5625 8.519531 -4.957031 8.5625 -4.1875 C 8.488281 -4.125 8.367188 -4.09375 8.203125 -4.09375 C 8.035156 -4.09375 7.921875 -4.125 7.859375 -4.1875 C 7.835938 -4.46875 7.8125 -4.675781 7.78125 -4.8125 C 7.757812 -4.945312 7.691406 -5.082031 7.578125 -5.21875 C 7.472656 -5.363281 7.304688 -5.457031 7.078125 -5.5 C 6.847656 -5.550781 6.535156 -5.578125 6.140625 -5.578125 Z M 6.140625 -5.578125 "/>
</symbol>
<symbol overflow="visible" id="glyph0-5">
<path style="stroke:none;" d="M 3.09375 5.75 L 2.015625 5.75 L 2.015625 -17.296875 L 3.09375 -17.296875 Z M 3.09375 5.75 "/>
</symbol>
<symbol overflow="visible" id="glyph0-6">
<path style="stroke:none;" d="M 8.0625 -9.859375 C 7.976562 -9.921875 7.929688 -10.050781 7.921875 -10.25 C 7.921875 -10.445312 7.96875 -10.59375 8.0625 -10.6875 C 8.882812 -10.65625 9.640625 -10.640625 10.328125 -10.640625 C 10.828125 -10.640625 11.40625 -10.65625 12.0625 -10.6875 C 12.144531 -10.601562 12.1875 -10.457031 12.1875 -10.25 C 12.195312 -10.050781 12.15625 -9.921875 12.0625 -9.859375 C 11.4375 -9.804688 10.992188 -9.648438 10.734375 -9.390625 C 10.484375 -9.128906 10.222656 -8.675781 9.953125 -8.03125 L 6.640625 -0.28125 C 6.484375 0.101562 6.285156 0.296875 6.046875 0.296875 C 5.765625 0.296875 5.5625 0.125 5.4375 -0.21875 L 2.265625 -8.0625 C 1.984375 -8.75 1.734375 -9.203125 1.515625 -9.421875 C 1.304688 -9.640625 0.894531 -9.785156 0.28125 -9.859375 C 0.195312 -9.921875 0.148438 -10.050781 0.140625 -10.25 C 0.140625 -10.445312 0.1875 -10.59375 0.28125 -10.6875 C 1.269531 -10.65625 2.035156 -10.640625 2.578125 -10.640625 C 3.160156 -10.640625 3.992188 -10.65625 5.078125 -10.6875 C 5.160156 -10.601562 5.203125 -10.457031 5.203125 -10.25 C 5.203125 -10.050781 5.160156 -9.921875 5.078125 -9.859375 C 4.460938 -9.773438 4.113281 -9.625 4.03125 -9.40625 C 3.957031 -9.195312 4.050781 -8.796875 4.3125 -8.203125 L 6.09375 -3.421875 C 6.300781 -2.910156 6.457031 -2.644531 6.5625 -2.625 C 6.664062 -2.601562 6.816406 -2.84375 7.015625 -3.34375 L 9.015625 -8.203125 C 9.273438 -8.828125 9.34375 -9.25 9.21875 -9.46875 C 9.101562 -9.6875 8.71875 -9.816406 8.0625 -9.859375 Z M 8.0625 -9.859375 "/>
</symbol>
<symbol overflow="visible" id="glyph0-7">
<path style="stroke:none;" d="M 3.078125 -7 L 7.5625 -7.0625 C 7.8125 -7.0625 7.929688 -7.175781 7.921875 -7.40625 C 7.921875 -8.351562 7.71875 -9.019531 7.3125 -9.40625 C 6.914062 -9.800781 6.4375 -10 5.875 -10 C 5.65625 -10 5.4375 -9.972656 5.21875 -9.921875 C 5.007812 -9.867188 4.753906 -9.75 4.453125 -9.5625 C 4.148438 -9.382812 3.875 -9.070312 3.625 -8.625 C 3.375 -8.1875 3.191406 -7.644531 3.078125 -7 Z M 9.578125 -2.296875 C 9.859375 -2.285156 10.03125 -2.15625 10.09375 -1.90625 C 8.988281 -0.476562 7.582031 0.234375 5.875 0.234375 C 4.226562 0.234375 2.960938 -0.289062 2.078125 -1.34375 C 1.304688 -2.238281 0.921875 -3.460938 0.921875 -5.015625 C 0.921875 -6.765625 1.441406 -8.171875 2.484375 -9.234375 C 3.535156 -10.296875 4.664062 -10.828125 5.875 -10.828125 C 8.664062 -10.828125 10.0625 -9.390625 10.0625 -6.515625 C 10.0625 -6.234375 9.90625 -6.09375 9.59375 -6.09375 L 3 -6.140625 C 3 -4.753906 3.257812 -3.625 3.78125 -2.75 C 4.507812 -1.5625 5.414062 -0.96875 6.5 -0.96875 C 7.1875 -0.96875 7.75 -1.066406 8.1875 -1.265625 C 8.632812 -1.460938 9.097656 -1.804688 9.578125 -2.296875 Z M 9.578125 -2.296875 "/>
</symbol>
<symbol overflow="visible" id="glyph0-8">
<path style="stroke:none;" d="M 4.359375 -8.875 C 4.359375 -8.789062 4.382812 -8.734375 4.4375 -8.703125 C 4.488281 -8.671875 4.554688 -8.710938 4.640625 -8.828125 C 4.960938 -9.390625 5.367188 -9.867188 5.859375 -10.265625 C 6.347656 -10.671875 6.851562 -10.875 7.375 -10.875 C 7.851562 -10.875 8.222656 -10.742188 8.484375 -10.484375 C 8.742188 -10.234375 8.875 -9.96875 8.875 -9.6875 C 8.875 -9.375 8.753906 -9.085938 8.515625 -8.828125 C 8.273438 -8.578125 8.003906 -8.453125 7.703125 -8.453125 C 7.398438 -8.453125 7.101562 -8.644531 6.8125 -9.03125 C 6.65625 -9.238281 6.441406 -9.34375 6.171875 -9.34375 C 5.972656 -9.34375 5.59375 -8.9375 5.03125 -8.125 C 4.632812 -7.53125 4.4375 -6.976562 4.4375 -6.46875 L 4.4375 -3.03125 C 4.4375 -2.03125 4.546875 -1.421875 4.765625 -1.203125 C 4.992188 -0.984375 5.5625 -0.835938 6.46875 -0.765625 C 6.550781 -0.679688 6.59375 -0.539062 6.59375 -0.34375 C 6.59375 -0.144531 6.550781 -0.015625 6.46875 0.046875 C 5.320312 0.015625 4.320312 0 3.46875 0 C 2.75 0 1.804688 0.015625 0.640625 0.046875 C 0.578125 -0.015625 0.546875 -0.144531 0.546875 -0.34375 C 0.546875 -0.539062 0.578125 -0.679688 0.640625 -0.765625 C 1.441406 -0.804688 1.945312 -0.941406 2.15625 -1.171875 C 2.375 -1.410156 2.484375 -2.03125 2.484375 -3.03125 L 2.484375 -7.859375 C 2.484375 -8.546875 2.382812 -8.976562 2.1875 -9.15625 C 2 -9.34375 1.5625 -9.46875 0.875 -9.53125 C 0.769531 -9.8125 0.753906 -10.046875 0.828125 -10.234375 C 2.046875 -10.398438 3.054688 -10.640625 3.859375 -10.953125 C 3.984375 -10.953125 4.082031 -10.882812 4.15625 -10.75 C 4.238281 -10.550781 4.304688 -9.925781 4.359375 -8.875 Z M 4.359375 -8.875 "/>
</symbol>
<symbol overflow="visible" id="glyph0-9">
<path style="stroke:none;" d="M 1.1875 -3.421875 C 1.269531 -3.503906 1.398438 -3.546875 1.578125 -3.546875 C 1.753906 -3.546875 1.878906 -3.515625 1.953125 -3.453125 C 2.222656 -2.328125 2.546875 -1.5625 2.921875 -1.15625 C 3.304688 -0.757812 3.894531 -0.5625 4.6875 -0.5625 C 5.21875 -0.5625 5.695312 -0.710938 6.125 -1.015625 C 6.5625 -1.316406 6.78125 -1.742188 6.78125 -2.296875 C 6.78125 -2.847656 6.609375 -3.285156 6.265625 -3.609375 C 5.929688 -3.941406 5.265625 -4.316406 4.265625 -4.734375 C 3.265625 -5.140625 2.554688 -5.582031 2.140625 -6.0625 C 1.734375 -6.539062 1.53125 -7.222656 1.53125 -8.109375 C 1.53125 -8.878906 1.878906 -9.53125 2.578125 -10.0625 C 3.273438 -10.601562 4.09375 -10.875 5.03125 -10.875 C 5.414062 -10.875 5.800781 -10.84375 6.1875 -10.78125 C 6.582031 -10.726562 7 -10.65625 7.4375 -10.5625 C 7.882812 -10.476562 8.164062 -10.425781 8.28125 -10.40625 C 8.25 -9.53125 8.195312 -8.65625 8.125 -7.78125 C 8.050781 -7.695312 7.921875 -7.65625 7.734375 -7.65625 C 7.546875 -7.65625 7.410156 -7.6875 7.328125 -7.75 C 7.253906 -8.25 7.117188 -8.660156 6.921875 -8.984375 C 6.734375 -9.316406 6.507812 -9.550781 6.25 -9.6875 C 6 -9.832031 5.773438 -9.929688 5.578125 -9.984375 C 5.390625 -10.035156 5.207031 -10.0625 5.03125 -10.0625 C 4.59375 -10.0625 4.191406 -9.914062 3.828125 -9.625 C 3.472656 -9.34375 3.296875 -8.957031 3.296875 -8.46875 C 3.296875 -7.84375 3.484375 -7.382812 3.859375 -7.09375 C 4.234375 -6.8125 4.867188 -6.503906 5.765625 -6.171875 C 7.703125 -5.453125 8.671875 -4.351562 8.671875 -2.875 C 8.671875 -2.300781 8.535156 -1.796875 8.265625 -1.359375 C 7.992188 -0.929688 7.644531 -0.601562 7.21875 -0.375 C 6.789062 -0.15625 6.367188 0 5.953125 0.09375 C 5.535156 0.1875 5.128906 0.234375 4.734375 0.234375 C 3.921875 0.234375 3.171875 0.144531 2.484375 -0.03125 C 2.367188 -0.0625 2.203125 -0.078125 1.984375 -0.078125 C 1.828125 -0.078125 1.625 -0.0507812 1.375 0 C 1.363281 -0.863281 1.300781 -2.003906 1.1875 -3.421875 Z M 1.1875 -3.421875 "/>
</symbol>
<symbol overflow="visible" id="glyph0-10">
<path style="stroke:none;" d="M 2.21875 -14.84375 C 2.21875 -15.144531 2.359375 -15.414062 2.640625 -15.65625 C 2.929688 -15.90625 3.222656 -16.03125 3.515625 -16.03125 C 3.835938 -16.03125 4.113281 -15.890625 4.34375 -15.609375 C 4.582031 -15.335938 4.703125 -15.050781 4.703125 -14.75 C 4.703125 -14.46875 4.570312 -14.195312 4.3125 -13.9375 C 4.050781 -13.675781 3.753906 -13.546875 3.421875 -13.546875 C 3.128906 -13.546875 2.851562 -13.679688 2.59375 -13.953125 C 2.34375 -14.234375 2.21875 -14.53125 2.21875 -14.84375 Z M 4.484375 -3.03125 C 4.484375 -2.03125 4.582031 -1.414062 4.78125 -1.1875 C 4.976562 -0.957031 5.472656 -0.816406 6.265625 -0.765625 C 6.347656 -0.679688 6.390625 -0.539062 6.390625 -0.34375 C 6.390625 -0.144531 6.347656 -0.015625 6.265625 0.046875 C 5.179688 0.015625 4.265625 0 3.515625 0 C 2.765625 0 1.835938 0.015625 0.734375 0.046875 C 0.671875 -0.015625 0.640625 -0.144531 0.640625 -0.34375 C 0.640625 -0.539062 0.671875 -0.679688 0.734375 -0.765625 C 1.523438 -0.828125 2.019531 -0.96875 2.21875 -1.1875 C 2.425781 -1.414062 2.53125 -2.03125 2.53125 -3.03125 L 2.53125 -7.859375 C 2.53125 -8.546875 2.429688 -8.976562 2.234375 -9.15625 C 2.046875 -9.34375 1.609375 -9.46875 0.921875 -9.53125 C 0.828125 -9.8125 0.8125 -10.046875 0.875 -10.234375 C 2.40625 -10.441406 3.535156 -10.679688 4.265625 -10.953125 C 4.484375 -10.953125 4.59375 -10.894531 4.59375 -10.78125 C 4.519531 -9.726562 4.484375 -8.789062 4.484375 -7.96875 Z M 4.484375 -3.03125 "/>
</symbol>
<symbol overflow="visible" id="glyph0-11">
<path style="stroke:none;" d="M 1.015625 -5.078125 C 1.015625 -6.710938 1.472656 -8.066406 2.390625 -9.140625 C 3.367188 -10.296875 4.660156 -10.875 6.265625 -10.875 C 7.453125 -10.875 8.453125 -10.582031 9.265625 -10 C 10.085938 -9.414062 10.660156 -8.71875 10.984375 -7.90625 C 11.304688 -7.09375 11.46875 -6.222656 11.46875 -5.296875 C 11.46875 -3.566406 10.929688 -2.179688 9.859375 -1.140625 C 8.921875 -0.210938 7.707031 0.242188 6.21875 0.234375 C 4.5625 0.234375 3.28125 -0.300781 2.375 -1.375 C 1.46875 -2.445312 1.015625 -3.679688 1.015625 -5.078125 Z M 5.890625 -10 C 4.054688 -10 3.140625 -8.550781 3.140625 -5.65625 C 3.140625 -5.125 3.203125 -4.582031 3.328125 -4.03125 C 3.453125 -3.488281 3.640625 -2.953125 3.890625 -2.421875 C 4.140625 -1.898438 4.492188 -1.46875 4.953125 -1.125 C 5.421875 -0.78125 5.960938 -0.609375 6.578125 -0.609375 C 7.296875 -0.609375 7.9375 -0.90625 8.5 -1.5 C 9.0625 -2.101562 9.34375 -3.109375 9.34375 -4.515625 C 9.34375 -6.273438 9.035156 -7.628906 8.421875 -8.578125 C 7.804688 -9.523438 6.960938 -10 5.890625 -10 Z M 5.890625 -10 "/>
</symbol>
<symbol overflow="visible" id="glyph0-12">
<path style="stroke:none;" d="M 4.5625 -8.875 C 5.726562 -10.207031 7.082031 -10.875 8.625 -10.875 C 9.570312 -10.875 10.257812 -10.59375 10.6875 -10.03125 C 11.125 -9.4375 11.34375 -8.332031 11.34375 -6.71875 L 11.34375 -3.03125 C 11.34375 -2.050781 11.4375 -1.445312 11.625 -1.21875 C 11.820312 -0.988281 12.28125 -0.835938 13 -0.765625 C 13.070312 -0.679688 13.109375 -0.539062 13.109375 -0.34375 C 13.109375 -0.144531 13.070312 -0.015625 13 0.046875 C 12.007812 0.015625 11.132812 0 10.375 0 C 9.6875 0 8.847656 0.015625 7.859375 0.046875 C 7.785156 -0.0351562 7.75 -0.175781 7.75 -0.375 C 7.75 -0.570312 7.785156 -0.703125 7.859375 -0.765625 C 8.535156 -0.828125 8.957031 -0.972656 9.125 -1.203125 C 9.300781 -1.441406 9.390625 -2.050781 9.390625 -3.03125 L 9.390625 -6.78125 C 9.390625 -7.664062 9.289062 -8.304688 9.09375 -8.703125 C 8.78125 -9.296875 8.34375 -9.59375 7.78125 -9.59375 C 6.769531 -9.59375 5.757812 -9.101562 4.75 -8.125 C 4.46875 -7.8125 4.328125 -7.46875 4.328125 -7.09375 L 4.328125 -3.03125 C 4.328125 -2.050781 4.414062 -1.445312 4.59375 -1.21875 C 4.769531 -0.988281 5.1875 -0.835938 5.84375 -0.765625 C 5.90625 -0.679688 5.9375 -0.539062 5.9375 -0.34375 C 5.945312 -0.144531 5.914062 -0.015625 5.84375 0.046875 C 4.851562 0.015625 4.03125 0 3.375 0 C 2.550781 0 1.640625 0.015625 0.640625 0.046875 C 0.578125 -0.015625 0.546875 -0.144531 0.546875 -0.34375 C 0.546875 -0.539062 0.578125 -0.679688 0.640625 -0.765625 C 1.410156 -0.828125 1.894531 -0.96875 2.09375 -1.1875 C 2.289062 -1.414062 2.390625 -2.03125 2.390625 -3.03125 L 2.390625 -7.859375 C 2.390625 -8.546875 2.289062 -8.976562 2.09375 -9.15625 C 1.90625 -9.34375 1.460938 -9.46875 0.765625 -9.53125 C 0.660156 -9.8125 0.644531 -10.046875 0.71875 -10.234375 C 1.9375 -10.398438 2.953125 -10.640625 3.765625 -10.953125 C 3.890625 -10.953125 3.988281 -10.882812 4.0625 -10.75 C 4.15625 -10.550781 4.222656 -9.925781 4.265625 -8.875 C 4.265625 -8.65625 4.363281 -8.65625 4.5625 -8.875 Z M 4.5625 -8.875 "/>
</symbol>
</g>
<clipPath id="clip1">
  <path d="M 0 0 L 81 0 L 81 23.058594 L 0 23.058594 Z M 0 0 "/>
</clipPath>
</defs>
<g id="surface1">
<g clip-path="url(#clip1)" clip-rule="nonzero">
<g style="fill:rgb(100%,100%,100%);fill-opacity:1;">
  <use xlink:href="#glyph0-1" x="0" y="17.311"/>
  <use xlink:href="#glyph0-2" x="12.021743" y="17.311"/>
  <use xlink:href="#glyph0-3" x="25.976881" y="17.311"/>
  <use xlink:href="#glyph0-4" x="53.267478" y="17.311"/>
  <use xlink:href="#glyph0-4" x="65.090925" y="17.311"/>
  <use xlink:href="#glyph0-5" x="76.914371" y="17.311"/>
</g>
</g>
<g style="fill:rgb(93.699646%,16.099548%,16.099548%);fill-opacity:1;">
  <use xlink:href="#glyph0-6" x="81.95" y="22.269"/>
</g>
<g style="fill:rgb(93.699646%,16.099548%,16.099548%);fill-opacity:1;">
  <use xlink:href="#glyph0-7" x="94.095679" y="22.269"/>
  <use xlink:href="#glyph0-8" x="105.175513" y="22.269"/>
  <use xlink:href="#glyph0-9" x="114.396314" y="22.269"/>
  <use xlink:href="#glyph0-10" x="124.063283" y="22.269"/>
  <use xlink:href="#glyph0-11" x="130.780587" y="22.269"/>
  <use xlink:href="#glyph0-12" x="143.273285" y="22.269"/>
  <use xlink:href="#glyph0-9" x="156.707894" y="22.269"/>
</g>
</g>
</svg>
